%YAML 1.1
%TAG !u! tag:unity3d.com,2011:
--- !u!1001 &4527675091633893268
PrefabInstance:
  m_ObjectHideFlags: 0
  serializedVersion: 2
  m_Modification:
    m_TransformParent: {fileID: 0}
    m_Modifications:
    - target: {fileID: 5662124730029816913, guid: 378f06064c2667d47ba85379b807d71c,
        type: 3}
      propertyPath: m_Name
      value: PFB_Large_SensorUnit
      objectReference: {fileID: 0}
    - target: {fileID: 5662124730029816915, guid: 378f06064c2667d47ba85379b807d71c,
        type: 3}
      propertyPath: m_RootOrder
      value: 0
      objectReference: {fileID: 0}
    - target: {fileID: 5662124730029816915, guid: 378f06064c2667d47ba85379b807d71c,
        type: 3}
      propertyPath: m_LocalEulerAnglesHint.x
      value: 0
      objectReference: {fileID: 0}
    - target: {fileID: 5662124730029816915, guid: 378f06064c2667d47ba85379b807d71c,
        type: 3}
      propertyPath: m_LocalEulerAnglesHint.y
      value: 0
      objectReference: {fileID: 0}
    - target: {fileID: 5662124730029816915, guid: 378f06064c2667d47ba85379b807d71c,
        type: 3}
      propertyPath: m_LocalEulerAnglesHint.z
      value: 0
      objectReference: {fileID: 0}
    - target: {fileID: 3096761131546652091, guid: 378f06064c2667d47ba85379b807d71c,
        type: 3}
      propertyPath: m_Center.z
      value: -190
      objectReference: {fileID: 0}
    m_RemovedComponents: []
  m_SourcePrefab: {fileID: 100100000, guid: 378f06064c2667d47ba85379b807d71c, type: 3}
